<?xml version="1.0" encoding="utf-8"?>
<!-- Generator: Adobe Illustrator 20.1.0, SVG Export Plug-In . SVG Version: 6.00 Build 0)  -->
<svg version="1.1" id="Layer_1" xmlns="http://www.w3.org/2000/svg" x="0px"
     y="0px"
     viewBox="0 0 93.5 93.5" style="enable-background:new 0 0 93.5 93.5;" xml:space="preserve">
<style type="text/css">
	.st0{fill:#E0E0E0;}
	.st1{fill:#C6C6C6;}
</style>
    <circle class="st0" cx="46.8" cy="46.8" r="39.3"/>
    <path class="st1" d="M46.8,0C20.9,0,0,20.9,0,46.8c0,25.8,20.9,46.8,46.8,46.8c25.8,0,46.8-20.9,46.8-46.8C93.5,20.9,72.6,0,46.8,0z
	 M17.9,46.2l-3.8-2.5c-0.8-0.5-1-1.5-0.5-2.3l8.7-13.8c0.5-0.8,1.5-1,2.3-0.5l3.8,2.5c0.8,0.5,1,1.5,0.5,2.3l-8.7,13.8
	C19.7,46.4,18.7,46.6,17.9,46.2z M22.1,47.2c-0.4-0.4-0.5-1-0.2-1.4l7.3-11.6c0.3-0.5,0.9-0.6,1.4-0.4l1.5,0.6
	c0.5,0.2,1.1,0.3,1.6,0.1l5.1-1.1c2.7-0.6,5.4-0.6,8.1-0.1l4.8,0.9c1.2,0.2,2.3,0.9,3,1.9l4.1,5.3c0.2,0.3,0.3,0.6,0.2,0.9
	c0,0.3-0.2,0.6-0.5,0.8c-0.4,0.3-0.9,0.3-1.3,0.1l-8.7-4.5c-0.9-0.5-2-0.4-2.9,0.1L27.1,51c-0.2,0.1-0.4,0.3-0.6,0.5L22.1,47.2z
	 M54.9,65.6c-0.1,0.4-0.5,0.8-0.9,1c-0.7,0.3-1.4,0.1-1.8-0.5l-1.7-2.5c-0.5-0.6-0.3-1.5,0.3-2c0.3-0.2,0.6-0.3,1-0.3
	c0.1,0,0.1,0,0.2,0c0.4,0.1,0.7,0.2,1,0.5l2,2.8C55,64.9,55,65.2,54.9,65.6z M60,63.8c-0.1,0.5-0.5,1-0.9,1.2
	c-0.8,0.5-1.9,0.2-2.4-0.6l-0.5-0.8c0-0.1-0.1-0.2-0.1-0.3l-1.7-2.5c0,0-0.1-0.1-0.1-0.1l-1.1-1.6c-0.5-0.8-0.4-1.9,0.4-2.5
	c0.3-0.3,0.7-0.4,1.2-0.4c0.1,0,0.2,0,0.3,0c0.5,0.1,0.9,0.3,1.2,0.7l3.8,5.5C60.1,63,60.1,63.4,60,63.8z M64.2,62.7
	c-0.4,0.3-0.9,0.4-1.4,0.3c-0.5-0.1-0.9-0.4-1.2-0.8l-0.3-0.5c-0.1-0.1-0.1-0.2-0.2-0.3l-3.6-5.2c0,0,0,0,0-0.1l-0.7-1
	c-0.3-0.4-0.4-0.9-0.3-1.4c0.1-0.5,0.4-0.9,0.8-1.2c0.3-0.2,0.7-0.3,1-0.3c0.6,0,1.2,0.3,1.6,0.8l1.9,2.8c0,0,0,0.1,0,0.1
	c0.7,1,1.5,2.2,2.2,3.3c0,0,0.1,0.1,0.1,0.1l0.5,0.7C65.2,60.9,65,62.1,64.2,62.7z M68,58.8L68,58.8c-0.5,0.3-1,0.4-1.4,0.4
	c-0.4-0.1-0.8-0.3-1.1-0.6L63.1,55c-0.2-0.4-0.3-0.9-0.2-1.3c0.1-0.5,0.4-0.9,0.8-1.2c0.3-0.2,0.7-0.3,1-0.3c0.6,0,1.1,0.3,1.5,0.8
	l2.3,3.2C69,57,68.8,58.2,68,58.8z M70.7,47.5l-3.2,4.2c-0.1,0.1-0.3,0.1-0.4,0c-1.1-1.2-2.9-1.4-4.3-0.6c-0.5,0.3-0.9,0.7-1.2,1.2
	c-0.1,0.2-0.3,0.2-0.4,0l0,0c-1-1.5-2.9-2.1-4.5-1.2c-1,0.5-1.6,1.4-1.8,2.4c-0.1,0.3-0.1,0.7,0,1c0,0.1-0.1,0.3-0.2,0.3
	c-0.8,0-1.6,0.3-2.2,0.8c-1.1,0.9-1.5,2.5-1.1,3.8c0,0.1,0,0.3-0.2,0.3c-1.1,0.2-2.1,0.9-2.4,2.1c-0.3,0.9-0.1,2,0.5,2.8l0.4,0.6
	c0.1,0.1,0,0.4-0.2,0.4l-4.8,0.7c-1.1,0.2-2.1,0-3.1-0.4c-0.6-0.3-0.6-1.1,0-1.4l4.4-2.2c0.4-0.2,0.5-0.7,0.3-1.1
	c-0.2-0.4-0.7-0.5-1.1-0.3l-6.1,3.1c-1.1,0.5-2.4,0.2-3-0.8c-0.3-0.4-0.4-0.8-0.3-1.2c0.1-0.4,0.3-0.8,0.7-1l1.4-0.9l5.7-3.1
	c0.4-0.2,0.5-0.7,0.3-1.1c-0.2-0.4-0.7-0.5-1.1-0.3L35,59.8c-1.1,0.6-2.6,0.3-3.3-0.8c-0.2-0.4-0.3-0.8-0.2-1.2
	c0.1-0.4,0.3-0.8,0.7-1l0.6-0.3l8.5-5.1c0.4-0.2,0.5-0.7,0.3-1.1c-0.2-0.4-0.7-0.5-1.1-0.3l-8.1,4.8h0l-0.4,0.2L30.4,56
	c-1,0.6-2.5,0.4-3.2-0.7c-0.3-0.5-0.4-1-0.3-1.6c0.1-0.6,0.5-1.1,1-1.4l18.6-12.1c0.4-0.2,0.9-0.3,1.3-0.1l8.5,4.5
	c0.9,0.5,2.1,0.5,3-0.1c0.9-0.6,1.3-1.5,1.3-2.6c0-0.6-0.3-1.1-0.6-1.6l-3.4-4.5l3.7-0.6c0.3,0,0.6-0.1,0.9-0.3l0.8-0.4
	c1-0.5,2.2-0.2,2.8,0.7l6.1,9.7C71.3,45.8,71.3,46.8,70.7,47.5z M79.4,44.3l-3.8,2.4c-0.8,0.5-1.8,0.3-2.3-0.5l-8.7-13.8
	c-0.5-0.8-0.3-1.8,0.5-2.3l3.8-2.4c0.8-0.5,1.8-0.3,2.3,0.5L79.9,42C80.4,42.8,80.2,43.8,79.4,44.3z"/>
</svg>
